(footprint "44 pin Connector 2.54mm"
	(version 20240108)
	(generator "pcbnew")
	(generator_version "8.0")
	(layer "F.Cu")
	(property "Reference" "REF**"
		(at 0.06 -26.864 0)
		(unlocked yes)
		(layer "F.SilkS")
		(uuid "5ec86abd-726b-45dd-99e3-5d5e905f9b5a")
		(effects
			(font
				(size 1 1)
				(thickness 0.1)
			)
		)
	)
	(property "Value" "44 pin Connector 2.54mm"
		(at 0.06 -30.166 0)
		(unlocked yes)
		(layer "F.Fab")
		(uuid "3b62c080-ed2b-46e6-8da6-53b368ee8ec7")
		(effects
			(font
				(size 1 1)
				(thickness 0.15)
			)
		)
	)
	(property "Footprint" "44 pin Connector 2.54mm"
		(at 0.06 -31.166 0)
		(unlocked yes)
		(layer "F.Fab")
		(hide yes)
		(uuid "ff58e01a-56da-4785-a580-8183ad47ef49")
		(effects
			(font
				(size 1 1)
				(thickness 0.15)
			)
		)
	)
	(property "Datasheet" ""
		(at -1.27 -6.35 0)
		(unlocked yes)
		(layer "F.Fab")
		(hide yes)
		(uuid "0d7386da-ab84-40a8-9d0f-2889ebecfe54")
		(effects
			(font
				(size 1 1)
				(thickness 0.15)
			)
		)
	)
	(property "Description" ""
		(at -1.27 -6.35 0)
		(unlocked yes)
		(layer "F.Fab")
		(hide yes)
		(uuid "2d780096-8db1-47a8-a3f9-f93a919f5eb4")
		(effects
			(font
				(size 1 1)
				(thickness 0.15)
			)
		)
	)
	(attr through_hole)
	(fp_line
		(start -5.17 15.151)
		(end -5.17 25.47)
		(stroke
			(width 0.12)
			(type solid)
		)
		(layer "F.SilkS")
		(uuid "d2af537f-6ccc-4d61-8bee-3980392afdb0")
	)
	(fp_line
		(start -5.17 25.47)
		(end 2.6 25.47)
		(stroke
			(width 0.12)
			(type solid)
		)
		(layer "F.SilkS")
		(uuid "f6eb1d75-76a9-40b9-b7fe-87c6fb8944a2")
	)
	(fp_line
		(start -2.6 -25.46)
		(end -2.6 15.151)
		(stroke
			(width 0.12)
			(type default)
		)
		(layer "F.SilkS")
		(uuid "9fe35227-8d87-49b5-bb99-b8e88d9e58ca")
	)
	(fp_line
		(start -2.6 -25.46)
		(end 0 -25.46)
		(stroke
			(width 0.12)
			(type solid)
		)
		(layer "F.SilkS")
		(uuid "cb1c7381-0458-4ca4-8b83-d51404d19ab1")
	)
	(fp_line
		(start -2.6 15.151)
		(end -5.17 15.151)
		(stroke
			(width 0.12)
			(type default)
		)
		(layer "F.SilkS")
		(uuid "aa950e13-2c15-4996-84a0-fc87232f82d9")
	)
	(fp_line
		(start 0 -25.46)
		(end 0 -22.86)
		(stroke
			(width 0.12)
			(type solid)
		)
		(layer "F.SilkS")
		(uuid "70492fd3-aaae-410d-8309-d13e01f60a92")
	)
	(fp_line
		(start 0 -22.86)
		(end 2.6 -22.86)
		(stroke
			(width 0.12)
			(type solid)
		)
		(layer "F.SilkS")
		(uuid "eca9b1f3-8d68-4169-b560-ae3ea5f4df7f")
	)
	(fp_line
		(start 1.27 -25.46)
		(end 2.6 -25.46)
		(stroke
			(width 0.12)
			(type solid)
		)
		(layer "F.SilkS")
		(uuid "7268b794-920e-4f76-b958-1968555b1e54")
	)
	(fp_line
		(start 2.6 -25.46)
		(end 2.6 -24.13)
		(stroke
			(width 0.12)
			(type solid)
		)
		(layer "F.SilkS")
		(uuid "7596bf91-07be-465f-b99d-814bdc0b5220")
	)
	(fp_line
		(start 2.6 -22.86)
		(end 2.6 25.47)
		(stroke
			(width 0.12)
			(type solid)
		)
		(layer "F.SilkS")
		(uuid "fb34d8e0-2f0d-4919-90ab-9cd3b931b0d7")
	)
	(fp_line
		(start -5.57 14.77)
		(end -3.07 14.77)
		(stroke
			(width 0.05)
			(type default)
		)
		(layer "F.CrtYd")
		(uuid "0d765c8d-2d01-4aef-aa2a-137181a97465")
	)
	(fp_line
		(start -5.57 25.87)
		(end -5.57 14.77)
		(stroke
			(width 0.05)
			(type solid)
		)
		(layer "F.CrtYd")
		(uuid "3af62555-a8b0-4951-b70b-744357cfe679")
	)
	(fp_line
		(start -3.07 -25.93)
		(end -3.07 14.77)
		(stroke
			(width 0.05)
			(type default)
		)
		(layer "F.CrtYd")
		(uuid "877e949a-243a-4fdf-a54a-a1995cfe53f0")
	)
	(fp_line
		(start -3.07 -25.93)
		(end 3.03 -25.93)
		(stroke
			(width 0.05)
			(type solid)
		)
		(layer "F.CrtYd")
		(uuid "5fee50fe-6b9d-4060-9abd-a7d5b7653755")
	)
	(fp_line
		(start 3.03 -25.93)
		(end 3.03 25.87)
		(stroke
			(width 0.05)
			(type solid)
		)
		(layer "F.CrtYd")
		(uuid "81f7643b-96b7-44fe-ad33-a71b0b0fba70")
	)
	(fp_line
		(start 3.03 25.87)
		(end -5.57 25.87)
		(stroke
			(width 0.05)
			(type solid)
		)
		(layer "F.CrtYd")
		(uuid "176bf5da-5582-4464-bbe0-05433c4c6a34")
	)
	(fp_line
		(start -5.14 15.181)
		(end -5.14 25.4)
		(stroke
			(width 0.1)
			(type default)
		)
		(layer "F.Fab")
		(uuid "c402cbd8-e18e-4dd1-b113-1e753f83ebe1")
	)
	(fp_line
		(start -2.54 -25.4)
		(end -2.54 15.181)
		(stroke
			(width 0.1)
			(type default)
		)
		(layer "F.Fab")
		(uuid "626458e6-718b-494e-843e-7f9299b933b6")
	)
	(fp_line
		(start -2.54 -25.4)
		(end 1.54 -25.4)
		(stroke
			(width 0.1)
			(type solid)
		)
		(layer "F.Fab")
		(uuid "ee3f628a-3230-4f4d-9e89-fe70722def74")
	)
	(fp_line
		(start -2.54 15.181)
		(end -5.14 15.181)
		(stroke
			(width 0.1)
			(type default)
		)
		(layer "F.Fab")
		(uuid "1e240fce-60a8-4fae-9edd-b1b516c44f8d")
	)
	(fp_line
		(start 1.54 -25.4)
		(end 2.54 -24.4)
		(stroke
			(width 0.1)
			(type solid)
		)
		(layer "F.Fab")
		(uuid "eef8b15c-b25d-4cc3-a0ca-3ba6172a06d9")
	)
	(fp_line
		(start 2.54 -24.4)
		(end 2.54 25.4)
		(stroke
			(width 0.1)
			(type solid)
		)
		(layer "F.Fab")
		(uuid "92667a9a-9341-4968-adc4-8822b7e72e1d")
	)
	(fp_line
		(start 2.54 25.4)
		(end -5.14 25.4)
		(stroke
			(width 0.1)
			(type solid)
		)
		(layer "F.Fab")
		(uuid "45b38e52-bb48-4661-a46b-20443cd10aa3")
	)
	(fp_text user "${REFERENCE}"
		(at 0 0 90)
		(layer "F.Fab")
		(uuid "1830e836-a990-4181-8897-34a3ed555418")
		(effects
			(font
				(size 1 1)
				(thickness 0.15)
			)
		)
	)
	(fp_text user "${REFERENCE}"
		(at 0.06 -28.666 0)
		(unlocked yes)
		(layer "F.Fab")
		(uuid "715feb12-b1dc-4e05-8932-9163a43f9889")
		(effects
			(font
				(size 1 1)
				(thickness 0.15)
			)
		)
	)
	(pad "1" thru_hole rect
		(at -1.27 -24.13)
		(size 1.7 1.7)
		(drill 1)
		(layers "*.Cu" "*.Mask")
		(remove_unused_layers no)
		(uuid "e90ce9f3-6927-4659-8305-a63919984f62")
	)
	(pad "2" thru_hole oval
		(at 1.27 -24.13)
		(size 1.7 1.7)
		(drill 1)
		(layers "*.Cu" "*.Mask")
		(remove_unused_layers no)
		(uuid "bf67f258-c6e0-4aeb-b199-b4bec366cccc")
	)
	(pad "3" thru_hole oval
		(at -1.27 -21.59)
		(size 1.7 1.7)
		(drill 1)
		(layers "*.Cu" "*.Mask")
		(remove_unused_layers no)
		(uuid "4bcf53c3-0cea-4b91-a26b-cc9d39cbffe2")
	)
	(pad "4" thru_hole oval
		(at 1.27 -21.59)
		(size 1.7 1.7)
		(drill 1)
		(layers "*.Cu" "*.Mask")
		(remove_unused_layers no)
		(uuid "9d5d7d07-1575-4f6d-8d54-7d4033245f54")
	)
	(pad "5" thru_hole oval
		(at -1.27 -19.05)
		(size 1.7 1.7)
		(drill 1)
		(layers "*.Cu" "*.Mask")
		(remove_unused_layers no)
		(uuid "461e5fa7-ecd2-4ea2-9717-66d063dd69b1")
	)
	(pad "6" thru_hole oval
		(at 1.27 -19.05)
		(size 1.7 1.7)
		(drill 1)
		(layers "*.Cu" "*.Mask")
		(remove_unused_layers no)
		(uuid "72358c4a-d956-4e3d-8389-be2a4016a4af")
	)
	(pad "7" thru_hole oval
		(at -1.27 -16.51)
		(size 1.7 1.7)
		(drill 1)
		(layers "*.Cu" "*.Mask")
		(remove_unused_layers no)
		(uuid "95313fa7-253c-4c43-9e96-d00fecd44711")
	)
	(pad "8" thru_hole oval
		(at 1.27 -16.51)
		(size 1.7 1.7)
		(drill 1)
		(layers "*.Cu" "*.Mask")
		(remove_unused_layers no)
		(uuid "bc3c3048-8f0e-40f7-afdd-ed39e102afbd")
	)
	(pad "9" thru_hole oval
		(at -1.27 -13.97)
		(size 1.7 1.7)
		(drill 1)
		(layers "*.Cu" "*.Mask")
		(remove_unused_layers no)
		(uuid "94fa4a93-43db-420e-ab4b-5b3105b6996e")
	)
	(pad "10" thru_hole oval
		(at 1.27 -13.97)
		(size 1.7 1.7)
		(drill 1)
		(layers "*.Cu" "*.Mask")
		(remove_unused_layers no)
		(uuid "c5aeae09-ab92-4059-90a2-dd5dab14f6bc")
	)
	(pad "11" thru_hole oval
		(at -1.27 -11.43)
		(size 1.7 1.7)
		(drill 1)
		(layers "*.Cu" "*.Mask")
		(remove_unused_layers no)
		(uuid "a971f7a5-d645-430e-af03-d54381cf0eb0")
	)
	(pad "12" thru_hole oval
		(at 1.27 -11.43)
		(size 1.7 1.7)
		(drill 1)
		(layers "*.Cu" "*.Mask")
		(remove_unused_layers no)
		(uuid "f5637f5a-ee3b-497d-a5ca-0bc27a3b24d0")
	)
	(pad "13" thru_hole oval
		(at -1.27 -8.89)
		(size 1.7 1.7)
		(drill 1)
		(layers "*.Cu" "*.Mask")
		(remove_unused_layers no)
		(uuid "c69d5cf5-70c7-450b-bcaf-a7912d743025")
	)
	(pad "14" thru_hole oval
		(at 1.27 -8.89)
		(size 1.7 1.7)
		(drill 1)
		(layers "*.Cu" "*.Mask")
		(remove_unused_layers no)
		(uuid "4d7f1905-da20-43e4-9fe2-9298aef893ab")
	)
	(pad "15" thru_hole oval
		(at -1.27 -6.35)
		(size 1.7 1.7)
		(drill 1)
		(layers "*.Cu" "*.Mask")
		(remove_unused_layers no)
		(uuid "855bdd24-71cd-4fcb-a1fb-814aac50ec54")
	)
	(pad "16" thru_hole oval
		(at 1.27 -6.35)
		(size 1.7 1.7)
		(drill 1)
		(layers "*.Cu" "*.Mask")
		(remove_unused_layers no)
		(uuid "6891e2a6-e1a7-4586-9e0e-179f73de1c6c")
	)
	(pad "17" thru_hole oval
		(at -1.27 -3.81)
		(size 1.7 1.7)
		(drill 1)
		(layers "*.Cu" "*.Mask")
		(remove_unused_layers no)
		(uuid "25bb42c1-5194-4c93-99dd-5e6f06aa8931")
	)
	(pad "18" thru_hole oval
		(at 1.27 -3.81)
		(size 1.7 1.7)
		(drill 1)
		(layers "*.Cu" "*.Mask")
		(remove_unused_layers no)
		(uuid "354330e3-1daa-4753-ae87-c1c8c4b97589")
	)
	(pad "19" thru_hole oval
		(at -1.27 -1.27)
		(size 1.7 1.7)
		(drill 1)
		(layers "*.Cu" "*.Mask")
		(remove_unused_layers no)
		(uuid "eb9abf43-c94d-4dbe-b29c-c51db0903006")
	)
	(pad "20" thru_hole oval
		(at 1.27 -1.27)
		(size 1.7 1.7)
		(drill 1)
		(layers "*.Cu" "*.Mask")
		(remove_unused_layers no)
		(uuid "6fb41cf3-727a-45cd-acbf-23c6d6e20760")
	)
	(pad "21" thru_hole oval
		(at -1.27 1.27)
		(size 1.7 1.7)
		(drill 1)
		(layers "*.Cu" "*.Mask")
		(remove_unused_layers no)
		(uuid "4e956dd7-c4a7-4e99-97b0-f23fb373a93a")
	)
	(pad "22" thru_hole oval
		(at 1.27 1.27)
		(size 1.7 1.7)
		(drill 1)
		(layers "*.Cu" "*.Mask")
		(remove_unused_layers no)
		(uuid "5eded5e9-9f6e-4fff-bc84-ce96951e4bf0")
	)
	(pad "23" thru_hole oval
		(at -1.27 3.81)
		(size 1.7 1.7)
		(drill 1)
		(layers "*.Cu" "*.Mask")
		(remove_unused_layers no)
		(uuid "146b65b6-98be-4599-bbd8-d2b349c9e0bd")
	)
	(pad "24" thru_hole oval
		(at 1.27 3.81)
		(size 1.7 1.7)
		(drill 1)
		(layers "*.Cu" "*.Mask")
		(remove_unused_layers no)
		(uuid "07a2bc6a-9b26-4e8f-ae64-7deb5556e7e0")
	)
	(pad "25" thru_hole oval
		(at -1.27 6.35)
		(size 1.7 1.7)
		(drill 1)
		(layers "*.Cu" "*.Mask")
		(remove_unused_layers no)
		(uuid "79ea15ae-7b61-4060-805b-b54ead163169")
	)
	(pad "26" thru_hole oval
		(at 1.27 6.35)
		(size 1.7 1.7)
		(drill 1)
		(layers "*.Cu" "*.Mask")
		(remove_unused_layers no)
		(uuid "2f367feb-95a3-423e-9aef-9df43f5921f3")
	)
	(pad "27" thru_hole oval
		(at -1.27 8.89)
		(size 1.7 1.7)
		(drill 1)
		(layers "*.Cu" "*.Mask")
		(remove_unused_layers no)
		(uuid "edd01337-f715-44e4-9d72-c9e030c7b716")
	)
	(pad "28" thru_hole oval
		(at 1.27 8.89)
		(size 1.7 1.7)
		(drill 1)
		(layers "*.Cu" "*.Mask")
		(remove_unused_layers no)
		(uuid "4f3b47a9-a213-41d9-bad8-6e47d93c7924")
	)
	(pad "29" thru_hole oval
		(at -1.27 11.43)
		(size 1.7 1.7)
		(drill 1)
		(layers "*.Cu" "*.Mask")
		(remove_unused_layers no)
		(uuid "6defc073-f81b-4c1b-8bde-19103bde51dd")
	)
	(pad "30" thru_hole oval
		(at 1.27 11.43)
		(size 1.7 1.7)
		(drill 1)
		(layers "*.Cu" "*.Mask")
		(remove_unused_layers no)
		(uuid "4173495b-a465-4967-9c9b-8f4d17bde1b4")
	)
	(pad "31" thru_hole oval
		(at -1.27 13.97)
		(size 1.7 1.7)
		(drill 1)
		(layers "*.Cu" "*.Mask")
		(remove_unused_layers no)
		(uuid "3b5000d1-c1b3-490f-815e-a11b56bbe621")
	)
	(pad "32" thru_hole oval
		(at 1.27 13.97)
		(size 1.7 1.7)
		(drill 1)
		(layers "*.Cu" "*.Mask")
		(remove_unused_layers no)
		(uuid "b35f9d91-76e2-48b7-a45d-3b555554a17e")
	)
	(pad "33" thru_hole oval
		(at -1.27 16.51)
		(size 1.7 1.7)
		(drill 1)
		(layers "*.Cu" "*.Mask")
		(remove_unused_layers no)
		(uuid "87beb531-c30c-4092-888d-c100982b548c")
	)
	(pad "34" thru_hole oval
		(at 1.27 16.51)
		(size 1.7 1.7)
		(drill 1)
		(layers "*.Cu" "*.Mask")
		(remove_unused_layers no)
		(uuid "de974baa-6656-4540-8a35-ad112c8600d8")
	)
	(pad "35" thru_hole oval
		(at -1.27 19.05)
		(size 1.7 1.7)
		(drill 1)
		(layers "*.Cu" "*.Mask")
		(remove_unused_layers no)
		(uuid "a24afec1-eb95-4063-baf8-a6cf3eaaa04d")
	)
	(pad "36" thru_hole oval
		(at 1.27 19.05)
		(size 1.7 1.7)
		(drill 1)
		(layers "*.Cu" "*.Mask")
		(remove_unused_layers no)
		(uuid "2fc11ec2-b0cf-4cf0-a783-1c550ef1c9be")
	)
	(pad "37" thru_hole oval
		(at -1.27 21.59)
		(size 1.7 1.7)
		(drill 1)
		(layers "*.Cu" "*.Mask")
		(remove_unused_layers no)
		(uuid "2626669a-fb7e-4d7b-9466-bb1b94a2560c")
	)
	(pad "38" thru_hole oval
		(at 1.27 21.59)
		(size 1.7 1.7)
		(drill 1)
		(layers "*.Cu" "*.Mask")
		(remove_unused_layers no)
		(uuid "9abc1ab8-ddf7-4353-85c4-54b3c9ea61f1")
	)
	(pad "39" thru_hole oval
		(at -1.27 24.13)
		(size 1.7 1.7)
		(drill 1)
		(layers "*.Cu" "*.Mask")
		(remove_unused_layers no)
		(uuid "2da54ac2-eb4b-48af-afd9-3f1c322b9cd7")
	)
	(pad "40" thru_hole oval
		(at 1.27 24.13)
		(size 1.7 1.7)
		(drill 1)
		(layers "*.Cu" "*.Mask")
		(remove_unused_layers no)
		(uuid "a32024c3-52ff-463e-a576-23736c5e4a86")
	)
	(pad "41" thru_hole oval
		(at -3.81 16.51)
		(size 1.7 1.7)
		(drill 1)
		(layers "*.Cu" "*.Mask")
		(remove_unused_layers no)
		(uuid "8e6c3a25-59e4-46bd-acc8-5dab17db9076")
	)
	(pad "42" thru_hole oval
		(at -3.81 19.05)
		(size 1.7 1.7)
		(drill 1)
		(layers "*.Cu" "*.Mask")
		(remove_unused_layers no)
		(uuid "7e34bf2b-249a-4feb-a7b7-5596cd9e78a1")
	)
	(pad "43" thru_hole oval
		(at -3.81 21.59)
		(size 1.7 1.7)
		(drill 1)
		(layers "*.Cu" "*.Mask")
		(remove_unused_layers no)
		(uuid "d02c7ae7-53e2-4e12-ab1e-9600d6ff172f")
	)
	(pad "44" thru_hole oval
		(at -3.81 24.13)
		(size 1.7 1.7)
		(drill 1)
		(layers "*.Cu" "*.Mask")
		(remove_unused_layers no)
		(uuid "f1d48b30-2b6c-46b7-882a-c7fa304fc898")
	)
)
